Compare two versions of a dataset — compare_dataset_versions • store
…
# select top 5 heaviest penguins from each species on each island
heaviest_penguins <- penguins %>%
  select(species, island, body_mass_g) %>%
  group_by(species, island) %>%
  arrange(desc(body_mass_g)) %>%
  slice_head(n = 5) %>%
  ungroup()
heaviest_penguins

#> # A tibble: 25 x 3
#>    species island body_mass_g
#>    <fct>   <fct>        <int>
#>  1 Adelie  Biscoe        4775
#>  2 Adelie  Biscoe        4725
#>  3 Adelie  Biscoe        4600
#>  4 Adelie  Biscoe        4400
#>  5 Adelie  Biscoe        4300
#>  6 Adelie  Dream         4650
#>  7 Adelie  Dream         4600
#>  8 Adelie  Dream         4475
#>  9 Adelie  Dream         4450
#> 10 Adelie  Dream         4400
#> # ... with 15 more rows
…
# make columns same between versions
heaviest_penguins_old <- heaviest_penguins_old %>%
  rename(body_mass = body_mass_g)

heaviest_penguins_new <- heaviest_penguins_new %>%
  rename(body_mass = body_mass_kg)

# compare versions of dataset
suppressWarnings(compare_dataset_versions(heaviest_penguins_old, heaviest_penguins_new))

#> # A tibble: 25 x 5
#>    differences   id    species island body_mass   
#>    <chr>         <chr> <chr>   <chr>  <chr>       
#>  1 # row changed 1     Adelie  Biscoe 4775 # 4.775
#>  2 # row changed 2     Adelie  Biscoe 4725 # 4.725
#>  3 # row changed 3     Adelie  Biscoe 4600 # 4.6  
#>  4 # row changed 4     Adelie  Biscoe 4400 # 4.4  
#>  5 # row changed 5     Adelie  Biscoe 4300 # 4.3  
#>  6 # row changed 6     Adelie  Dream  4650 # 4.65 
#>  7 # row changed 7     Adelie  Dream  4600 # 4.6  
#>  8 # row changed 8     Adelie  Dream  4475 # 4.475
#>  9 # row changed 9     Adelie  Dream  4450 # 4.45 
#> 10 # row changed 10    Adelie  Dream  4400 # 4.4  
#> # ... with 15 more rows
…
