extract_semicolon_delimited_list — extract_semicolon_delimited_list • store
…
    library(palmerpenguins)
    library(dplyr)
    library(purrr)
  })
})
# select top 5 heaviest penguins from each species on each island
heaviest_penguins <- penguins %>%
 select(species, island, body_mass_g) %>%
 group_by(species, island) %>%
 arrange(desc(body_mass_g)) %>%
 slice_head(n = 5) %>%
 ungroup()
heaviest_penguins

#> # A tibble: 25 x 3
#>    species island body_mass_g
#>    <fct>   <fct>        <int>
#>  1 Adelie  Biscoe        4775
#>  2 Adelie  Biscoe        4725
#>  3 Adelie  Biscoe        4600
#>  4 Adelie  Biscoe        4400
#>  5 Adelie  Biscoe        4300
#>  6 Adelie  Dream         4650
#>  7 Adelie  Dream         4600
#>  8 Adelie  Dream         4475
#>  9 Adelie  Dream         4450
#> 10 Adelie  Dream         4400
#> # ... with 15 more rows
…
