Validation checks • store
…
The penguins dataset contains eight named columns

penguins %>% 
  chain_start %>%
    verify(has_all_names("species")) %>%
    verify(has_all_names("island")) %>%
    verify(has_all_names("bill_length_mm")) %>%
    verify(has_all_names("bill_depth_mm")) %>%
    verify(has_all_names("flipper_length_mm")) %>%
    verify(has_all_names("body_mass_g")) %>%
    verify(has_all_names("sex")) %>%
    verify(has_all_names("year")) %>%
    verify(ncol(.) == 8) %>%
  chain_end
#> # A tibble: 344 x 8
#>    species island    bill_length_mm bill_depth_mm flipper_length_mm body_mass_g
#>    <fct>   <fct>              <dbl>         <dbl>             <int>       <int>
#>  1 Adelie  Torgersen           39.1          18.7               181        3750
#>  2 Adelie  Torgersen           39.5          17.4               186        3800
#>  3 Adelie  Torgersen           40.3          18                 195        3250
#>  4 Adelie  Torgersen           NA            NA                  NA          NA
#>  5 Adelie  Torgersen           36.7          19.3               193        3450
#>  6 Adelie  Torgersen           39.3          20.6               190        3650
#>  7 Adelie  Torgersen           38.9          17.8               181        3625
#>  8 Adelie  Torgersen           39.2          19.6               195        4675
#>  9 Adelie  Torgersen           34.1          18.1               193        3475
#> 10 Adelie  Torgersen           42            20.2               190        4250
#> # ... with 334 more rows, and 2 more variables: sex <fct>, year <int>
…
penguins %>% 
  assert_rows(num_row_NAs, function(.x){.x != 4}, bill_length_mm:body_mass_g,
               success_fun = success_continue, error_fun = just_warn)
#> Data frame row reduction 'num_row_NAs' violates predicate 'function(.x) {
#>     .x != 4
#> }' 2 times
#>          verb    redux_fn                      predicate
#> 1 assert_rows num_row_NAs function(.x) {\n    .x != 4\n}
#> 2 assert_rows num_row_NAs function(.x) {\n    .x != 4\n}
#>                        column index value
#> 1 ~bill_length_mm:body_mass_g     4     4
#> 2 ~bill_length_mm:body_mass_g   272     4
#> Warning: assertr encountered errors
#> # A tibble: 344 x 8
#>    species island    bill_length_mm bill_depth_mm flipper_length_mm body_mass_g
#>    <fct>   <fct>              <dbl>         <dbl>             <int>       <int>
#>  1 Adelie  Torgersen           39.1          18.7               181        3750
#>  2 Adelie  Torgersen           39.5          17.4               186        3800
#>  3 Adelie  Torgersen           40.3          18                 195        3250
#>  4 Adelie  Torgersen           NA            NA                  NA          NA
#>  5 Adelie  Torgersen           36.7          19.3               193        3450
#>  6 Adelie  Torgersen           39.3          20.6               190        3650
#>  7 Adelie  Torgersen           38.9          17.8               181        3625
#>  8 Adelie  Torgersen           39.2          19.6               195        4675
#>  9 Adelie  Torgersen           34.1          18.1               193        3475
#> 10 Adelie  Torgersen           42            20.2               190        4250
#> # ... with 334 more rows, and 2 more variables: sex <fct>, year <int>
…
